<?xml version="1.0" standalone="no"?>
<!DOCTYPE svg PUBLIC "-//W3C//DTD SVG 20010904//EN"
 "http://www.w3.org/TR/2001/REC-SVG-20010904/DTD/svg10.dtd">
<svg version="1.0" xmlns="http://www.w3.org/2000/svg"
 width="280.000000pt" height="280.000000pt" viewBox="0 0 280.000000 280.000000"
 preserveAspectRatio="xMidYMid meet">
<metadata>
Created by potrace 1.11, written by Peter Selinger 2001-2013
</metadata>
<g transform="translate(0.000000,280.000000) scale(0.100000,-0.100000)"
fill="#000000" stroke="none">
<path d="M1076 2674 c-463 -84 -851 -419 -1000 -864 -48 -143 -66 -257 -66
-415 0 -158 18 -272 66 -415 107 -321 347 -597 652 -749 89 -45 251 -97 356
-116 114 -19 328 -19 442 0 271 48 520 180 715 382 49 51 95 93 102 93 18 0
85 38 135 76 24 18 59 36 78 40 42 8 164 113 193 167 17 31 7 93 -15 101 -9 4
-45 -9 -82 -29 -65 -35 -115 -44 -127 -25 -3 5 6 46 20 91 38 122 55 238 55
384 0 347 -123 654 -362 901 -192 198 -442 332 -712 379 -110 19 -342 18 -450
-1z m1404 -1873 c0 -5 3 -16 6 -25 5 -12 0 -16 -20 -16 -24 0 -25 2 -14 25 11
24 28 34 28 16z"/>
</g>
</svg>
